{"count":1547,"perPage":10,"currentPage":1,"totalPages":155,"results":[{"_id":"628aa513cfe289001693fb7f","firstName":"Wyatt","lastName":"Hane","email":"Johanna.Hilll46@yahoo.com","phone":"3900299297","createdAt":"2022-05-22T21:03:15.414Z","updatedAt":"2022-05-22T21:03:15.414Z","__v":0,"id":"628aa513cfe289001693fb7f"},{"_id":"628aa513cfe289001693fb88","firstName":"Whitney","lastName":"Metz","email":"Mortimer.Stoltenberg@yahoo.com","phone":"8859394707","createdAt":"2022-05-22T21:03:15.450Z","updatedAt":"2022-05-22T21:03:15.450Z","__v":0,"id":"628aa513cfe289001693fb88"},{"_id":"628aa513cfe289001693fb8b","firstName":"Zachery","lastName":"Boehm","email":"Dolly_Kertzmann52@hotmail.com","phone":"2145669546","createdAt":"2022-05-22T21:03:15.463Z","updatedAt":"2022-05-22T21:03:15.463Z","__v":0,"id":"628aa513cfe289001693fb8b"},{"_id":"628aa513cfe289001693fb87","firstName":"Martine","lastName":"Schmeler","email":"Jeromy.Mertz66@hotmail.com","phone":"2536763355","createdAt":"2022-05-22T21:03:15.448Z","updatedAt":"2022-05-22T21:03:15.448Z","__v":0,"id":"628aa513cfe289001693fb87"},{"_id":"628aa513cfe289001693fb8c","firstName":"Maybell","lastName":"Updated","email":"Morris_Feeney@yahoo.com","phone":"7099957311","createdAt":"2022-05-22T21:03:15.465Z","updatedAt":"2022-08-16T01:31:23.813Z","__v":0,"id":"628aa513cfe289001693fb8c"},{"_id":"628aa513cfe289001693fb8d","firstName":"Major","lastName":"Doyle","email":"Gregg_Ledner@hotmail.com","phone":"8046001046","createdAt":"2022-05-22T21:03:15.467Z","updatedAt":"2022-05-22T21:03:15.467Z","__v":0,"id":"628aa513cfe289001693fb8d"},{"_id":"628aa513cfe289001693fb90","firstName":"Tyrese","lastName":"Koch","email":"Celine_Bechtelar24@gmail.com","phone":"4095416002","createdAt":"2022-05-22T21:03:15.482Z","updatedAt":"2022-05-22T21:03:15.482Z","__v":0,"id":"628aa513cfe289001693fb90"},{"_id":"628aa513cfe289001693fb91","firstName":"Magnolia","lastName":"Torphy","email":"Carleton_McLaughlin@hotmail.com","phone":"1974409945","createdAt":"2022-05-22T21:03:15.486Z","updatedAt":"2022-05-22T21:03:15.486Z","__v":0,"id":"628aa513cfe289001693fb91"},{"_id":"628aa513cfe289001693fb93","firstName":"Rosemary","lastName":"Anderson","email":"Pascale30@yahoo.com","phone":"1282815463","createdAt":"2022-05-22T21:03:15.491Z","updatedAt":"2022-05-22T21:03:15.491Z","__v":0,"id":"628aa513cfe289001693fb93"},{"_id":"628aa513cfe289001693fb94","firstName":"Kaya","lastName":"Klocko","email":"Janelle_Mitchell70@gmail.com","phone":"6222412988","createdAt":"2022-05-22T21:03:15.503Z","updatedAt":"2022-05-22T21:03:15.503Z","__v":0,"id":"628aa513cfe289001693fb94"}]}